<svg width="70" height="70" viewBox="0 0 70 70" fill="none" xmlns="http://www.w3.org/2000/svg">
<g filter="url(#filter0_d_1001_7408)">
<path d="M52.2145 0H17.7855C10.172 0 4 6.17196 4 13.7855V48.2145C4 55.828 10.172 62 17.7855 62H52.2145C59.828 62 66 55.828 66 48.2145V13.7855C66 6.17196 59.828 0 52.2145 0Z" fill="white"/>
</g>
<path d="M33.5941 10.6055V20.1444C32.2126 19.3517 30.8344 18.7761 29.7226 17.8748C27.9661 16.4473 26.5189 16.8518 24.9038 18.3551C27.5353 19.8714 30.0812 21.3878 32.6764 22.8318C32.988 22.9719 33.2481 23.2055 33.4208 23.5003C33.5936 23.795 33.6702 24.1362 33.6402 24.4765C33.6106 33.226 33.6402 41.9788 33.6402 50.7283C33.6187 50.9496 33.5836 51.1693 33.535 51.3862L28.8082 48.6791C25.4005 46.7055 22.006 44.7319 18.5818 42.8011C17.9431 42.4851 17.4119 41.9874 17.055 41.3707C16.698 40.7539 16.5312 40.0454 16.5753 39.3342C16.6115 36.4561 16.5753 33.5779 16.5753 30.4169L29.0746 37.6106C29.6865 34.8443 29.6371 34.7292 27.2952 33.374C24.0815 31.5155 20.8843 29.6275 17.6345 27.8282C16.7858 27.3579 16.5358 26.8151 16.5391 25.8842C16.572 19.8418 16.151 20.6477 21.2034 17.7202C25.2887 15.3815 29.3378 13.056 33.5941 10.6055Z" fill="#8390FF"/>
<path d="M53.4419 35.9944C53.4419 35.0932 53.113 34.6327 52.3794 34.2117C49.0901 32.3598 45.8469 30.4487 42.5773 28.5705C40.5018 27.3765 40.3636 27.0508 41.051 24.4852L53.3958 31.5703C53.3958 28.1626 53.4155 24.9917 53.3958 21.8472C53.3958 20.7749 52.7708 19.9986 51.863 19.4789C46.9839 16.6852 42.1025 13.8991 37.219 11.1208C35.9033 10.43 36.5414 11.6536 36.5414 11.9135C36.5019 20.4328 36.4942 28.9521 36.5184 37.4714C36.5184 37.9319 36.3145 38.4812 36.8802 38.7871C39.6257 40.4186 42.3767 42.0533 45.1331 43.6914C43.5904 45.1683 42.13 45.5433 40.3373 44.1552C39.1941 43.2498 37.9063 42.5436 36.5282 42.0665V51.3226C37.0052 51.0858 37.3933 50.918 37.7584 50.7075C41.403 48.6089 45.0464 46.506 48.6888 44.3986C54.1359 41.2606 53.3399 42.2605 53.4419 35.9944Z" fill="#596AFF"/>
<defs>
<filter id="filter0_d_1001_7408" x="0" y="0" width="70" height="70" filterUnits="userSpaceOnUse" color-interpolation-filters="sRGB">
<feFlood flood-opacity="0" result="BackgroundImageFix"/>
<feColorMatrix in="SourceAlpha" type="matrix" values="0 0 0 0 0 0 0 0 0 0 0 0 0 0 0 0 0 0 127 0" result="hardAlpha"/>
<feOffset dy="4"/>
<feGaussianBlur stdDeviation="2"/>
<feComposite in2="hardAlpha" operator="out"/>
<feColorMatrix type="matrix" values="0 0 0 0 0 0 0 0 0 0 0 0 0 0 0 0 0 0 0.25 0"/>
<feBlend mode="normal" in2="BackgroundImageFix" result="effect1_dropShadow_1001_7408"/>
<feBlend mode="normal" in="SourceGraphic" in2="effect1_dropShadow_1001_7408" result="shape"/>
</filter>
</defs>
</svg>
