<svg width="177" height="29" viewBox="0 0 177 29" fill="none" xmlns="http://www.w3.org/2000/svg">
<path d="M27.5781 4.60938L26.6875 8.20312H22.0469C22.9635 9.58854 23.8021 11.3854 24.5625 13.5938C25.3646 15.9271 25.7656 17.8542 25.7656 19.375C25.7656 20.0938 25.5729 20.8438 25.1875 21.625C24.7396 22.5417 24.1927 23 23.5469 23H3.5C1.55208 23 0.578125 22.0677 0.578125 20.2031C0.578125 19.8281 0.651042 19.2969 0.796875 18.6094L2.40625 11.0156L7.23438 9.60938L5.6875 17.7344C5.64583 17.9531 5.625 18.125 5.625 18.25C5.625 18.8125 5.94792 19.0938 6.59375 19.0938H19.5312C20.4896 19.0938 20.9688 18.8073 20.9688 18.2344C20.9688 18.099 20.9479 17.9323 20.9062 17.7344C20.5521 16.0781 20.1146 14.6719 19.5938 13.5156C19.1562 12.5469 18.1979 10.7865 16.7188 8.23438C17.0417 6.53646 17.375 5.47917 17.7188 5.0625C17.9688 4.76042 18.4583 4.60938 19.1875 4.60938H27.5781ZM36.6719 23H31.1406C29.1719 23 28.1875 22.0781 28.1875 20.2344C28.1875 19.6927 28.2708 19.151 28.4375 18.6094L31.3125 4.64062H35.8906L33.2969 17.7188C33.2552 17.9271 33.2344 18.0781 33.2344 18.1719C33.2344 18.7656 33.5312 19.0625 34.125 19.0625H36.6719V23ZM47.0938 23H44.4844C43.849 23 43.2708 22.6823 42.75 22.0469C42.4375 22.6823 41.9688 23 41.3438 23H35.75V19.0938H38.1562C38.7917 19.0938 39.1979 18.9792 39.375 18.75C39.4688 18.625 39.5885 18.2135 39.7344 17.5156L41.3438 9.60938L45.6719 11.0156L44.3438 17.75C44.2917 18.0104 44.2656 18.2083 44.2656 18.3438C44.2656 18.8438 44.5833 19.0938 45.2188 19.0938H47.0938V23ZM44.0469 25.1406L43.375 28.6875H39.375L40.0781 25.1406H44.0469ZM38.9219 25.1406L38.2812 28.6875H34.2656L34.9688 25.1406H38.9219ZM56.5312 11.0156L54.75 19.1719C54.4688 20.474 54.2188 21.2969 54 21.6406C53.4271 22.5469 52.4062 23 50.9375 23H46.0938V19.0938H49.0156C49.651 19.0938 50.0573 18.9792 50.2344 18.75C50.3281 18.625 50.4479 18.2135 50.5938 17.5156L52.2031 9.60938L56.5312 11.0156ZM57.0625 4.67188L56.3594 8.21875H52.3438L53.0469 4.67188H57.0625ZM65.3125 4.60938L61.6094 23H57.0156L60.7344 4.60938H65.3125ZM84.9375 4.65625L84.2344 8.20312H80.2188L80.9219 4.65625H84.9375ZM90.4375 11.0156L88.2344 22.0469C87.8073 24.1823 87.3125 25.5208 86.75 26.0625C86.0938 26.6875 84.7344 27 82.6719 27H74.4062C72.4375 27 71.4531 26.0729 71.4531 24.2188C71.4531 23.6667 71.5365 23.1198 71.7031 22.5781L74.4062 9.60938L78.6719 11.0156L76.5625 21.6562C76.5208 21.8646 76.5 22.0156 76.5 22.1094C76.5 22.7031 76.7917 23 77.375 23H81.4062C82.125 23 82.5938 22.9375 82.8125 22.8125C83.1458 22.625 83.4323 22.1562 83.6719 21.4062C83.8594 20.8125 84.1615 19.5156 84.5781 17.5156L86.2188 9.60938L90.4375 11.0156ZM99.8125 4.60938L96.1094 23H91.5156L95.2344 4.60938H99.8125ZM109.797 10.8438C109.568 12.1979 109.328 13.4792 109.078 14.6875C108.495 17.4479 107.906 19.3542 107.312 20.4062C105.646 23.3333 103.661 25.625 101.359 27.2812C98.9219 25.6562 97.7031 24.7708 97.7031 24.625C98.4635 24.0938 99.1927 23.4844 99.8906 22.7969C101.516 21.1927 102.755 19.4062 103.609 17.4375C104.245 15.9688 104.844 13.3594 105.406 9.60938L109.797 10.8438ZM121.656 23.0625C120.323 24.9062 118.766 26.5156 116.984 27.8906L113.297 25.25C114.776 24.1354 116.005 22.8958 116.984 21.5312C115.828 21.2188 114.854 20.6979 114.062 19.9688C113.146 19.1146 112.688 18.1458 112.688 17.0625C112.688 15.8125 113.484 14.2604 115.078 12.4062C116.703 10.5104 118.125 9.5625 119.344 9.5625C122.885 9.5625 124.656 11.2292 124.656 14.5625C124.656 17.4583 123.656 20.2917 121.656 23.0625ZM120.5 16.2656C120.781 15.6719 120.922 15.151 120.922 14.7031C120.922 14.0156 120.62 13.6719 120.016 13.6719C119.547 13.6719 119.005 13.9688 118.391 14.5625C117.526 15.3958 117.094 16.125 117.094 16.75C117.094 17.625 117.76 18.151 119.094 18.3281C119.531 17.9948 120 17.3073 120.5 16.2656ZM135.594 4.60938L131.891 23H127.297L131.016 4.60938H135.594ZM138.047 1.60938C137.047 2.25521 136.036 2.59375 135.016 2.625C133.995 2.48958 133.188 2.39583 132.594 2.34375C131.625 2.26042 130.734 2.45833 129.922 2.9375L128.984 1.4375C130.078 0.760417 131.073 0.463542 131.969 0.546875C132.417 0.598958 133.271 0.692708 134.531 0.828125C135.448 0.921875 136.318 0.713542 137.141 0.203125L138.047 1.60938ZM156.125 4.65625L155.422 8.20312H151.406L152.109 4.65625H156.125ZM162.641 23H160.547C159.974 23 159.573 22.776 159.344 22.3281C158.927 24.3594 158.427 25.6354 157.844 26.1562C157.208 26.7188 155.88 27 153.859 27H145.594C143.625 27 142.641 26.0729 142.641 24.2188C142.641 23.6667 142.724 23.1198 142.891 22.5781L145.594 9.60938L149.859 11.0156L147.75 21.6562C147.708 21.8646 147.688 22.0156 147.688 22.1094C147.688 22.7031 147.979 23 148.562 23H152.594C153.312 23 153.781 22.9375 154 22.8125C154.333 22.625 154.62 22.1562 154.859 21.4062C155.047 20.8125 155.349 19.5156 155.766 17.5156L157.406 9.60938L161.625 11.0156L160.297 17.5156C160.266 17.6719 160.25 17.8021 160.25 17.9062C160.25 18.6979 160.557 19.0938 161.172 19.0938H162.641V23ZM174.578 4.65625L173.875 8.20312H169.859L170.562 4.65625H174.578ZM176.438 13.7812L175.484 19.0938C175.224 20.5417 174.844 21.5312 174.344 22.0625C173.76 22.6875 172.781 23 171.406 23H161.344V19.0938H165.219C164.844 18.8438 164.656 18.4635 164.656 17.9531C164.656 17.8073 164.672 17.6615 164.703 17.5156L165.219 15.0469C165.708 12.6927 166.104 11.276 166.406 10.7969C166.906 9.99479 167.901 9.59375 169.391 9.59375H171.891C173.474 9.59375 174.5 9.65625 174.969 9.78125C176.094 10.0833 176.656 10.7917 176.656 11.9062C176.656 12.3438 176.583 12.9688 176.438 13.7812ZM172.25 12.4219H171.594C170.698 12.4219 170.094 12.7865 169.781 13.5156C169.667 13.7656 169.505 14.5417 169.297 15.8438L168.766 19.0938H169.297C170.078 19.0938 170.594 18.9792 170.844 18.75C171.094 18.5208 171.286 18.0104 171.422 17.2188L172.25 12.4219Z" fill="#4947FB"/>
</svg>
