<svg width="389" height="267" viewBox="0 0 389 267" fill="none" xmlns="http://www.w3.org/2000/svg">
<g filter="url(#filter0_f_261_16490)">
<rect x="50" y="199" width="289" height="18" rx="9" fill="black"/>
</g>
<rect x="12" width="365" height="217" rx="32" fill="url(#paint0_linear_261_16490)"/>
<path fill-rule="evenodd" clip-rule="evenodd" d="M254.765 171.177C253.403 190.757 256.972 203.211 263.219 217H298.259C289.406 204.731 284.191 189.677 284.191 173.41C284.191 132.139 317.753 98.6826 359.154 98.6826C365.111 98.6826 370.905 99.3751 376.461 100.684V70.765C356.695 67.4532 336.39 69.8827 317.972 77.7633C299.553 85.6438 283.799 98.6424 272.591 115.207C261.383 131.771 255.195 151.201 254.765 171.177Z" fill="#D9D9D9" fill-opacity="0.1"/>
<path fill-rule="evenodd" clip-rule="evenodd" d="M133.696 45.88C135.058 26.276 131.489 13.8061 125.242 -7.643e-07L90.2015 -3.82762e-06C99.0554 12.2844 104.27 27.3567 104.27 43.6446C104.27 84.9665 70.7078 118.465 29.3067 118.465C23.3499 118.465 17.5555 117.771 11.9999 116.461L11.9999 146.417C31.766 149.733 52.0707 147.3 70.4892 139.41C88.9077 131.519 104.662 118.505 115.87 101.92C127.078 85.3347 133.266 65.8804 133.696 45.88Z" fill="#D9D9D9" fill-opacity="0.1"/>
<defs>
<filter id="filter0_f_261_16490" x="0" y="149" width="389" height="118" filterUnits="userSpaceOnUse" color-interpolation-filters="sRGB">
<feFlood flood-opacity="0" result="BackgroundImageFix"/>
<feBlend mode="normal" in="SourceGraphic" in2="BackgroundImageFix" result="shape"/>
<feGaussianBlur stdDeviation="25" result="effect1_foregroundBlur_261_16490"/>
</filter>
<linearGradient id="paint0_linear_261_16490" x1="20.9242" y1="-35.1291" x2="414.894" y2="248.081" gradientUnits="userSpaceOnUse">
<stop stop-color="#E6E6E6"/>
<stop offset="1" stop-color="#7E7E7E"/>
</linearGradient>
</defs>
</svg>
