<svg width="9" height="9" viewBox="0 0 9 9" fill="none" xmlns="http://www.w3.org/2000/svg">
<circle cx="1.87311" cy="1.87311" r="1.87311" transform="matrix(-1 0 0 1 9 0)" fill="#4640E1"/>
<circle cx="1.87311" cy="1.87311" r="1.87311" transform="matrix(-1 0 0 1 4.00488 0)" fill="#4640E1"/>
<circle cx="1.87311" cy="1.87311" r="1.87311" transform="matrix(-1 0 0 1 4.00488 4.99414)" fill="#4640E1"/>
<circle cx="1.87311" cy="1.87311" r="1.87311" transform="matrix(-1 0 0 1 9 4.99414)" fill="#4640E1"/>
</svg>
