<svg width="18" height="13" viewBox="0 0 18 13" fill="none" xmlns="http://www.w3.org/2000/svg">
<rect width="18" height="13" rx="6.5" fill="#4640E1"/>
<path d="M8.23569 5.85045C8.23569 6.82064 7.4472 7.60813 6.47331 7.60813C5.49943 7.60813 4.71094 6.82064 4.71094 5.85045C4.71094 4.88026 5.49943 4.09277 6.47331 4.09277C7.4472 4.09277 8.23569 4.88026 8.23569 5.85045Z" stroke="white" stroke-width="0.5"/>
<path d="M6.47317 8.30469C5.58365 8.30469 4.73055 8.63372 4.10156 9.21941" stroke="white" stroke-width="0.5" stroke-linecap="round"/>
<path d="M13.7367 9.98806C12.88 9.19034 11.7181 8.74219 10.5065 8.74219C9.29499 8.74219 8.13306 9.19034 7.27637 9.98806" stroke="white" stroke-width="0.5" stroke-linecap="round"/>
<mask id="path-5-inside-1_840_19344" fill="white">
<path fill-rule="evenodd" clip-rule="evenodd" d="M10.7387 8.19851C12.2 8.19851 13.3846 7.03741 13.3846 5.60512C13.3846 4.17282 12.2 3.01172 10.7387 3.01172C9.27738 3.01172 8.09277 4.17282 8.09277 5.60512C8.09277 7.03741 9.27738 8.19851 10.7387 8.19851ZM10.7387 7.507C11.8103 7.507 12.679 6.65552 12.679 5.60517C12.679 4.55482 11.8103 3.70335 10.7387 3.70335C9.66706 3.70335 8.79834 4.55482 8.79834 5.60517C8.79834 6.65552 9.66706 7.507 10.7387 7.507Z"/>
</mask>
<path fill-rule="evenodd" clip-rule="evenodd" d="M10.7387 8.19851C12.2 8.19851 13.3846 7.03741 13.3846 5.60512C13.3846 4.17282 12.2 3.01172 10.7387 3.01172C9.27738 3.01172 8.09277 4.17282 8.09277 5.60512C8.09277 7.03741 9.27738 8.19851 10.7387 8.19851ZM10.7387 7.507C11.8103 7.507 12.679 6.65552 12.679 5.60517C12.679 4.55482 11.8103 3.70335 10.7387 3.70335C9.66706 3.70335 8.79834 4.55482 8.79834 5.60517C8.79834 6.65552 9.66706 7.507 10.7387 7.507Z" fill="white"/>
<path d="M11.3846 5.60512C11.3846 5.89524 11.1334 6.19851 10.7387 6.19851V10.1985C13.2665 10.1985 15.3846 8.17957 15.3846 5.60512H11.3846ZM10.7387 5.01172C11.1334 5.01172 11.3846 5.31499 11.3846 5.60512H15.3846C15.3846 3.03066 13.2665 1.01172 10.7387 1.01172V5.01172ZM10.0928 5.60512C10.0928 5.31499 10.344 5.01172 10.7387 5.01172V1.01172C8.21079 1.01172 6.09277 3.03066 6.09277 5.60512H10.0928ZM10.7387 6.19851C10.344 6.19851 10.0928 5.89524 10.0928 5.60512H6.09277C6.09277 8.17957 8.21079 10.1985 10.7387 10.1985V6.19851ZM10.679 5.60517C10.679 5.58947 10.6827 5.57039 10.6902 5.55303C10.6971 5.53713 10.705 5.52724 10.7107 5.52165C10.7164 5.51608 10.7222 5.51243 10.728 5.51002C10.735 5.5071 10.7398 5.507 10.7387 5.507V9.507C12.8769 9.507 14.679 7.79769 14.679 5.60517H10.679ZM10.7387 5.70335C10.7398 5.70335 10.735 5.70325 10.728 5.70033C10.7222 5.69792 10.7164 5.69426 10.7107 5.68869C10.705 5.6831 10.697 5.67322 10.6902 5.65732C10.6827 5.63995 10.679 5.62087 10.679 5.60517H14.679C14.679 3.41266 12.8769 1.70335 10.7387 1.70335V5.70335ZM10.7983 5.60517C10.7983 5.62087 10.7946 5.63995 10.7871 5.65732C10.7803 5.67322 10.7723 5.6831 10.7666 5.68869C10.7609 5.69426 10.7552 5.69792 10.7493 5.70033C10.7423 5.70325 10.7375 5.70335 10.7387 5.70335V1.70335C8.60046 1.70335 6.79834 3.41266 6.79834 5.60517H10.7983ZM10.7387 5.507C10.7375 5.507 10.7423 5.5071 10.7493 5.51002C10.7552 5.51243 10.7609 5.51608 10.7666 5.52165C10.7723 5.52724 10.7803 5.53713 10.7871 5.55303C10.7946 5.57039 10.7983 5.58947 10.7983 5.60517H6.79834C6.79834 7.79769 8.60046 9.507 10.7387 9.507V5.507Z" fill="white" mask="url(#path-5-inside-1_840_19344)"/>
</svg>
