<svg width="4" height="4" viewBox="0 0 4 4" fill="none" xmlns="http://www.w3.org/2000/svg">
<rect width="3.74623" height="3.74623" rx="1.87311" transform="matrix(-1 0 0 1 4 0)" fill="#5BC2A5"/>
</svg>
